dataCleaning
…
──────────────────────────────────────────────────────────────── wehoop 2.1.0 ──

# A tibble: 93,002 × 64
            id sequence_number type_id type_text     text  away_score home_score
         <dbl> <chr>             <int> <chr>         <chr>      <int>      <int>
 1  4013918607 7                   141 Cutting Layu… Sylv…          0          0
 2  4013918609 9                   130 Floating Jum… Nati…          0          2
 3 40139186010 10                  132 Step Back Ju… Kayl…          2          2
 4 40139186011 11                   92 Jump Shot     Cour…          2          2
 5 40139186013 13                   92 Jump Shot     Aeri…          5          2
 6 40139186019 19                  120 Turnaround H… Sylv…          5          4
 7 40139186022 22                  114 Turnaround J… Jonq…          5          6
 8 40139186026 26                   92 Jump Shot     Mori…          5          6
 9 40139186028 28                  145 Driving Floa… Cour…          5          6
10 40139186030 30                   92 Jump Shot     Kayl…          5          6
# ℹ 92,992 more rows
# ℹ 57 more variables: period_number <int>, period_display_value <chr>,
#   clock_display_value <chr>, scoring_play <lgl>, score_value <int>,
#   team_id <int>, athlete_id_1 <int>, athlete_id_2 <int>, athlete_id_3 <int>,
#   wallclock <chr>, shooting_play <lgl>, coordinate_x_raw <dbl>,
#   coordinate_y_raw <dbl>, season <int>, season_type <int>,
#   away_team_id <int>, away_team_name <chr>, away_team_mascot <chr>, …
…
[1] 235

235 unique athletes took shots in these 3 seasons.

# A tibble: 3 × 8
  season avg_points avg_playtime avg_ppm sd_points sd_playtime avg_fg_att
   <int>      <dbl>        <dbl>   <dbl>     <dbl>       <dbl>      <dbl>
1   2022       7.50         18.3   0.409      7.24        11.8       6.20
2   2023       7.46         18.1   0.412      7.81        12.5       6.17
3   2024       7.32         18.0   0.407      7.72        12.7       6.11
# ℹ 1 more variable: sd_fg_att <dbl>

──────────────────────────────────────────────────────────────── wehoop 2.1.0 ──

# A tibble: 93,002 × 64
            id sequence_number type_id type_text     text  away_score home_score
         <dbl> <chr>             <int> <chr>         <chr>      <int>      <int>
 1  4013918607 7                   141 Cutting Layu… Sylv…          0          0
 2  4013918609 9                   130 Floating Jum… Nati…          0          2
 3 40139186010 10                  132 Step Back Ju… Kayl…          2          2
 4 40139186011 11                   92 Jump Shot     Cour…          2          2
 5 40139186013 13                   92 Jump Shot     Aeri…          5          2
 6 40139186019 19                  120 Turnaround H… Sylv…          5          4
 7 40139186022 22                  114 Turnaround J… Jonq…          5          6
 8 40139186026 26                   92 Jump Shot     Mori…          5          6
 9 40139186028 28                  145 Driving Floa… Cour…          5          6
10 40139186030 30                   92 Jump Shot     Kayl…          5          6
# ℹ 92,992 more rows
# ℹ 57 more variables: period_number <int>, period_display_value <chr>,
#   clock_display_value <chr>, scoring_play <lgl>, score_value <int>,
#   team_id <int>, athlete_id_1 <int>, athlete_id_2 <int>, athlete_id_3 <int>,
#   wallclock <chr>, shooting_play <lgl>, coordinate_x_raw <dbl>,
#   coordinate_y_raw <dbl>, season <int>, season_type <int>,
#   away_team_id <int>, away_team_name <chr>, away_team_mascot <chr>, …
…
# A tibble: 93,002 × 65
            id sequence_number type_id type_text     text  away_score home_score
         <dbl> <chr>             <int> <chr>         <chr>      <int>      <int>
 1  4013918607 7                   141 Cutting Layu… Sylv…          0          0
 2  4013918609 9                   130 Floating Jum… Nati…          0          2
 3 40139186010 10                  132 Step Back Ju… Kayl…          2          2
 4 40139186011 11                   92 Jump Shot     Cour…          2          2
 5 40139186013 13                   92 Jump Shot     Aeri…          5          2
 6 40139186019 19                  120 Turnaround H… Sylv…          5          4
 7 40139186022 22                  114 Turnaround J… Jonq…          5          6
 8 40139186026 26                   92 Jump Shot     Mori…          5          6
 9 40139186028 28                  145 Driving Floa… Cour…          5          6
10 40139186030 30                   92 Jump Shot     Kayl…          5          6
# ℹ 92,992 more rows
# ℹ 58 more variables: period_number <int>, period_display_value <chr>,
#   clock_display_value <chr>, scoring_play <lgl>, score_value <int>,
#   team_id <int>, athlete_id_1 <int>, athlete_id_2 <int>, athlete_id_3 <int>,
#   wallclock <chr>, shooting_play <lgl>, coordinate_x_raw <dbl>,
#   coordinate_y_raw <dbl>, season <int>, season_type <int>,
#   away_team_id <int>, away_team_name <chr>, away_team_mascot <chr>, …
…
